<?xml version="1.0" encoding="utf-8"?>
<!-- Generator: Adobe Illustrator 25.0.1, SVG Export Plug-In . SVG Version: 6.00 Build 0)  -->
<svg version="1.1" id="Layer_1" xmlns="http://www.w3.org/2000/svg" xmlns:xlink="http://www.w3.org/1999/xlink" x="0px" y="0px"
	 viewBox="0 0 792 792" style="enable-background:new 0 0 792 792;" xml:space="preserve">
<style type="text/css">
	.st0{fill:#F2D544;}
	.st1{stroke:#000000;stroke-miterlimit:10;}
</style>
<g id="home">
	<ellipse cx="409.54" cy="359.86" rx="179.44" ry="179.83"/>
	<path d="M245.92,433.81l108.2,174.73c25.51,41.19,85.32,41.19,110.83,0l108.2-174.73H245.92z"/>
	<circle class="st0" cx="408.04" cy="363.43" r="165.25"/>
	<path class="st0" d="M257.36,431.38L357,591.96c23.49,37.86,78.58,37.86,102.07,0l99.65-160.57H257.36z"/>
	<path class="st0" d="M408.04,314.14"/>
	<path class="st1" d="M389.04,271.91l-75.53,53.92c-6.3,4.49-7.04,13.57-1.55,19.03l0.18,0.18c4.3,4.28,11.05,4.85,16.01,1.35
		l62.39-44.01c10.49-7.4,24.51-7.4,35-0.01l62.51,44.05c4.94,3.48,11.65,2.93,15.96-1.31h0c5.53-5.44,4.82-14.55-1.48-19.06
		l-75.52-54.11C415.67,263.81,400.4,263.8,389.04,271.91z"/>
	<path class="st1" d="M396.59,313.77l-46.36,32.78c-5.22,3.69-8.34,9.67-8.38,16.06l-0.37,57.1c-0.07,11,8.83,19.96,19.83,19.96
		h93.02c10.95,0,19.83-8.88,19.83-19.83V362.7c0-6.44-3.12-12.47-8.38-16.19l-46.29-32.74
		C412.63,308.91,403.45,308.91,396.59,313.77z"/>
	<path d="M445.93,261.65v41.64l24.55,14.11v-52.82c0-4.38-2.32-9.83-6.7-9.83h-10.94C449.02,254.74,445.93,257.84,445.93,261.65z"/>
</g>
</svg>
